lab2/divider.vcd
$version Generated by VerilatedVcd $end
$timescale 1ps $end
 $scope module TOP $end
  $var wire 1 , clock $end
  $var wire 1 - reset $end
  $var wire 8 . io_x [7:0] $end
  $var wire 8 / io_y [7:0] $end
  $var wire 1 0 io_start $end
  $var wire 8 1 io_z [7:0] $end
  $var wire 8 2 io_r [7:0] $end
  $var wire 1 3 io_busy $end
  $scope module Divider $end
   $var wire 1 , clock $end
   $var wire 1 - reset $end
   $var wire 8 . io_x [7:0] $end
   $var wire 8 / io_y [7:0] $end
   $var wire 1 0 io_start $end
   $var wire 8 1 io_z [7:0] $end
   $var wire 8 2 io_r [7:0] $end
   $var wire 1 3 io_busy $end
   $var wire 7 # quotient [6:0] $end
   $var wire 1 $ quotient_sign $end
   $var wire 1 % remain_sign $end
   $var wire 14 & remain [13:0] $end
   $var wire 3 ' cnt_value [2:0] $end
   $var wire 14 ( extend_y [13:0] $end
   $var wire 1 ) busy $end
   $var wire 1 * state $end
   $scope module unnamedblk1 $end
    $scope module unnamedblk2 $end
     $var wire 1 + wrap $end
    $upscope $end
   $upscope $end
  $upscope $end
 $upscope $end
$enddefinitions $end


#0
b0000000 #
0$
0%
b00000000000000 &
b000 '
b00000000000000 (
0)
0*
0+
1,
1-
b00000000 .
b00000000 /
00
b00000000 1
b00000000 2
03
#10
0,
#20
1,
#30
0,
#40
1,
#45
0-
b10001101 .
b00000110 /
#50
0,
#55
1$
1%
b11111010001101 &
b00000110000000 (
1*
1,
10
b10000000 1
b11111010 2
#60
0,
#65
b11111010011010 &
b001 '
1)
1,
00
13
#70
0,
#75
b11111010110100 &
b010 '
1,
#80
0,
#85
b11111011101000 &
b011 '
1,
b11111011 2
#90
0,
#95
b11111101010000 &
b100 '
1,
b11111101 2
#100
0,
#105
b0000001 #
b00000000100000 &
b101 '
1,
b10000001 1
b10000000 2
#110
0,
#115
b0000010 #
b11111011000000 &
b110 '
1,
b10000010 1
b11111011 2
#120
0,
#125
b00000001000000 &
b000 '
0)
0*
1+
1,
b10000001 2
03
#130
0,
#135
0+
1,
