lab2/divider.vcd
$version Generated by VerilatedVcd $end
$timescale 1ps $end
 $scope module TOP $end
  $var wire 1 * clock $end
  $var wire 1 + reset $end
  $var wire 9 , io_x [8:0] $end
  $var wire 9 - io_y [8:0] $end
  $var wire 1 . io_start $end
  $var wire 9 / io_z [8:0] $end
  $var wire 8 0 io_r [7:0] $end
  $var wire 1 1 io_busy $end
  $scope module Divider $end
   $var wire 1 * clock $end
   $var wire 1 + reset $end
   $var wire 9 , io_x [8:0] $end
   $var wire 9 - io_y [8:0] $end
   $var wire 1 . io_start $end
   $var wire 9 / io_z [8:0] $end
   $var wire 8 0 io_r [7:0] $end
   $var wire 1 1 io_busy $end
   $var wire 8 # quotient [7:0] $end
   $var wire 1 $ quotient_sign $end
   $var wire 16 % remain [15:0] $end
   $var wire 3 & cnt_value [2:0] $end
   $var wire 16 ' extend_y [15:0] $end
   $var wire 1 ( busy $end
   $var wire 1 ) state $end
  $upscope $end
 $upscope $end
$enddefinitions $end


#0
b00000000 #
0$
b0000000000000000 %
b000 &
b0000000000000000 '
0(
0)
1*
1+
b000000000 ,
b000000000 -
0.
b000000000 /
b00000000 0
01
#1
0*
#2
1*
#3
0*
#4
1*
#5
0+
b001100001 ,
b000001110 -
#6
0*
#7
1*
#8
0*
#9
1*
#10
0*
#11
b1111100101100001 %
b0000011100000000 '
1)
1*
1.
b11110010 0
#12
0*
#13
b1111100111000010 %
b001 &
1(
1*
0.
b11110011 0
11
#14
0*
#15
b1111101010000100 %
b010 &
1*
b11110101 0
#16
0*
#17
b1111110000001000 %
b011 &
1*
b11111000 0
#18
0*
#19
b1111111100010000 %
b100 &
1*
b11111110 0
#20
0*
#21
b00000001 #
b0000010100100000 %
b101 &
1*
b000000001 /
b00001010 0
#22
0*
#23
b00000011 #
b0000001101000000 %
b110 &
1*
b000000011 /
b00000110 0
#24
0*
#25
b00000110 #
b1111111110000000 %
b111 &
1*
b000000110 /
b11111111 0
#26
0*
#27
b0000011010000000 %
b000 &
0(
0)
1*
b00001101 0
01
